{
   "categoryName1": {
      "message": "CMS"
   },
   "categoryName10": {
      "message": "Аналитика"
   },
   "categoryName11": {
      "message": "Блог"
   },
   "categoryName12": {
      "message": "JS фреймворк"
   },
   "categoryName13": {
      "message": "Баг трекер"
   },
   "categoryName14": {
      "message": "Видео плеер"
   },
   "categoryName15": {
      "message": "Система комментариев"
   },
   "categoryName16": {
      "message": "Капча"
   },
   "categoryName17": {
      "message": "Шрифт"
   },
   "categoryName18": {
      "message": "Веб фреймворк"
   },
   "categoryName19": {
      "message": "Прочее"
   },
   "categoryName2": {
      "message": "Форум"
   },
   "categoryName20": {
      "message": "HTML редактор"
   },
   "categoryName21": {
      "message": "LMS"
   },
   "categoryName22": {
      "message": "Веб сервер"
   },
   "categoryName23": {
      "message": "Кеширование"
   },
   "categoryName24": {
      "message": "WYSIWYG редактор"
   },
   "categoryName25": {
      "message": "JS графика"
   },
   "categoryName26": {
      "message": "Мобильный фреймворк"
   },
   "categoryName27": {
      "message": "Язык программирования"
   },
   "categoryName28": {
      "message": "Операционная система"
   },
   "categoryName29": {
      "message": "Поисковый движок"
   },
   "categoryName3": {
      "message": "Менеджер БД"
   },
   "categoryName30": {
      "message": "Веб почта"
   },
   "categoryName31": {
      "message": "CDN"
   },
   "categoryName32": {
      "message": "Управление маркетингом"
   },
   "categoryName33": {
      "message": "Расширение Веб сервера"
   },
   "categoryName34": {
      "message": "База данных"
   },
   "categoryName35": {
      "message": "Карта"
   },
   "categoryName36": {
      "message": "Рекламная сеть"
   },
   "categoryName37": {
      "message": "Сетевая служба"
   },
   "categoryName38": {
      "message": "Медиа сервер"
   },
   "categoryName39": {
      "message": "Вебкамера"
   },
   "categoryName4": {
      "message": "Документация"
   },
   "categoryName40": {
      "message": "Принтер"
   },
   "categoryName41": {
      "message": "Платёжная система"
   },
   "categoryName42": {
      "message": "Менеджер тэгов"
   },
   "categoryName43": {
      "message": "Paywall"
   },
   "categoryName44": {
      "message": "Система непрерывной интеграции"
   },
   "categoryName45": {
      "message": "Система SCADA"
   },
   "categoryName46": {
      "message": "Удаленное управление"
   },
   "categoryName47": {
      "message": "Утилита для разработчиков"
   },
   "categoryName48": {
      "message": "Сетевое хранилище"
   },
   "categoryName49": {
      "message": "Граббер контента"
   },
   "categoryName5": {
      "message": "Виджет"
   },
   "categoryName50": {
      "message": "Управление документами"
   },
   "categoryName51": {
      "message": "Генератор лендингов"
   },
   "categoryName52": {
      "message": "Live Chat"
   },
   "categoryName53": {
      "message": "CRM"
   },
   "categoryName6": {
      "message": "Электронная коммерция"
   },
   "categoryName7": {
      "message": "Фотогалерея"
   },
   "categoryName8": {
      "message": "Вики"
   },
   "categoryName9": {
      "message": "Панель управления хостингом"
   },
   "github": {
      "message": "Форкнуть на GitHub!"
   },
   "noAppsDetected": {
      "message": "Нет данных о сайте"
   },
   "nothingToDo": {
      "message": "Тут нечего искать"
   },
   "optionDynamicIcon": {
      "message": "Использовать значок приложения вместо логотипа Wappalyzer"
   },
   "optionTracking": {
      "message": "Анонимно отправлять статистику распознанных данных на сервер (для исследований)"
   },
   "optionUpgradeMessage": {
      "message": "Оповещать меня об обновлениях"
   },
   "options": {
      "message": "Настройки"
   },
   "optionsSave": {
      "message": "Сохранить"
   },
   "optionsSaved": {
      "message": "Успешно сохранено!"
   },
   "twitter": {
      "message": "Следите за новостями в Твиттере"
   },
   "website": {
      "message": "Перейти на Wappalyzer.com"
   }
}
