{
   "add_domain_button": {
      "description": "",
      "message": "Добавить домен"
   },
   "badger_status_allow": {
      "description": "",
      "message": "Разрешен "
   },
   "badger_status_block": {
      "description": "",
      "message": "Заблокирован "
   },
   "badger_status_cookieblock": {
      "description": "",
      "message": "Заблокированы файлы cookie домена "
   },
   "badger_status_noaction": {
      "description": "",
      "message": "No tracking for "
   },
   "data_settings": {
      "description": "",
      "message": "Manage Data"
   },
   "ded_always_allow": {
      "description": "",
      "message": "Всегда разрешать "
   },
   "ded_can_allow_to_track": {
      "description": "",
      "message": " может позволить домену отслеживать вашу активность в Интернете."
   },
   "ded_logging_into": {
      "description": "",
      "message": "Переход на "
   },
   "ded_never_allow": {
      "description": "",
      "message": "Всегда блокировать сторонние запросы от "
   },
   "ded_on": {
      "description": "",
      "message": " на "
   },
   "ded_only_allow": {
      "description": "",
      "message": "Разрешать только "
   },
   "ded_privacy_badger_alert": {
      "description": "",
      "message": "Предупреждение Privacy Badger!"
   },
   "description": {
      "description": "",
      "message": "Privacy Badger защищает вас от трекеров во время работы в Интернете!"
   },
   "disabled_for_these_domains": {
      "description": "",
      "message": "Privacy Badger отключен для сайтов из списка, приведенного ниже. Вы можете добавить домен с помощью значка Privacy Badger в адресной строке или напечатать домен (НЕ URL) в текстовом поле и нажать кнопку «Добавить домен»."
   },
   "dnt_tooltip": {
      "description": "",
      "message": "This domain promises to not track you"
   },
   "donate_to_eff": {
      "description": "",
      "message": "Пожертвовать EFF"
   },
   "download": {
      "description": "",
      "message": "Download"
   },
   "error_input": {
      "description": "",
      "message": "Что случилось?"
   },
   "export_user_data": {
      "description": "",
      "message": "Export user data"
   },
   "feed_the_badger_title": {
      "description": "",
      "message": "Щелкните, чтобы вернуть этот трекер под контроль Privacy Badger"
   },
   "firstRun_title": {
      "description": "",
      "message": "Спасибо вам за то, что установили Privacy Badger!"
   },
   "first_run_text": {
      "description": "",
      "message": "Узнайте, как Privacy Badger защищает вашу приватность."
   },
   "import": {
      "description": "",
      "message": "Import"
   },
   "import_select_file": {
      "description": "",
      "message": "Please select a file to import."
   },
   "import_successful": {
      "description": "",
      "message": "Tracker list and settings updated successfully!"
   },
   "import_user_data": {
      "description": "",
      "message": "Import user data"
   },
   "intro1": {
      "description": "firstRun.html intro to Privacy Badger",
      "message": "Privacy Badger блокирует шпионские рекламные сети и скрытые трекеры. Он гарантирует, что компании не смогут отследить вашу активность в Интернете без вашего согласия."
   },
   "intro2": {
      "description": "",
      "message": "Это расширение разработано для автоматической защиты вашей приватности от посторонних трекеров, которые незаметно загружаются во время вашей работы в Интернете. Мы отправляем вместе с каждым запросом заголовок Do Not Track, и наше расширение оценивает вероятность отслеживания вашей активности. Если алгоритм посчитает эту вероятность слишком высокой, мы автоматически заблокируем запрос к этому домену. Пожалуйста, поймите, что Privacy Badger находится в стадии beta, и алгоритм не может определить точно, отслеживает вас домен или нет."
   },
   "intro_3_states": {
      "description": "",
      "message": "Наше расширение может иметь три состояния. "
   },
   "intro_by_eff": {
      "description": "",
      "message": "Проект Electronic Frontier Foundation"
   },
   "intro_cookie_blocked": {
      "description": "",
      "message": "означает, что Privacy Badger считает этот домен трекером, необходимым для нормального функционирования страницы сайта, поэтому он разрешил его работу, заблокировав файлы cookie."
   },
   "intro_green": {
      "description": "",
      "message": "Зеленый"
   },
   "intro_has_blocked": {
      "description": "",
      "message": "означает, что Privacy Badger считает этот домен трекером и заблокировал его. "
   },
   "intro_hungry": {
      "description": "",
      "message": "Ничто не помешает Privacy Badger поедать файлы cookie, когда он голоден!"
   },
   "intro_no_tracker": {
      "description": "",
      "message": "означает, что Privacy Badger не считает этот домен трекером. Вы можете щелкнуть на значке Privacy Badger в панели браузера для изменения настройки автоматической блокировки или начать спокойно работать в Интернете, пока Privacy Badger ищет и поедает трекеры один за другим."
   },
   "intro_red": {
      "description": "",
      "message": "Красный"
   },
   "intro_social_share": {
      "description": "",
      "message": "Сообщите миру о том, что вы против отслеживания активности в Интернете"
   },
   "intro_text": {
      "description": "",
      "message": "Теперь вы под защитой Privacy Badger. Чтобы узнать, как работает Privacy Badger, щелкните ниже и пройдите обучение."
   },
   "intro_yellow": {
      "description": "",
      "message": "Желтый"
   },
   "invalid_json": {
      "description": "",
      "message": "Invalid JSON file."
   },
   "name": {
      "description": "",
      "message": "Privacy Badger"
   },
   "new_filters_added": {
      "description": "",
      "message": "Добавлены новые фильтры. Для управления ими перейдите в \u003Ca id='options_url' target='_blank'>Настройки\u003C/a>."
   },
   "non_tracker": {
      "description": "",
      "message": "У приведенных ниже доменов отслеживающая активность не обнаружена"
   },
   "non_tracker_tip": {
      "description": "",
      "message": "На данный момент Privacy Badger проверяет только использование сторонних файлов cookie, локального хранилища HTML5 или метода canvas fingerprinting для отслеживания вашей сетевой активности. Некоторые домены могут использовать методы отслеживания, которые Privacy Badger не может обнаружить."
   },
   "options_dnt_policy_learn_more": {
      "description": "",
      "message": "Learn more"
   },
   "options_dnt_policy_setting": {
      "description": "",
      "message": "Check if sites comply with EFF's Do Not Track policy"
   },
   "options_domain_search": {
      "description": "",
      "message": "Найти домены"
   },
   "options_filter_settings": {
      "description": "",
      "message": "Настройки пользовательских фильтров"
   },
   "options_general_settings": {
      "description": "",
      "message": "Общие настройки"
   },
   "options_loading": {
      "description": "",
      "message": "Загрузка..."
   },
   "options_pb_has_detected": {
      "description": "",
      "message": "Privacy Badger обнаружил"
   },
   "options_potential": {
      "description": "",
      "message": "потенциальных"
   },
   "options_remove_origin_confirm": {
      "description": "",
      "message": "Are you sure you want to remove this origin from Privacy Badger?"
   },
   "options_slider_text": {
      "description": "",
      "message": "Privacy Badger защищает вас в Интернете! С помощью этих переключателей вы можете выбрать, какое действие Privacy Badger выполнит с каждым трекером, обнаруженным во время посещения сайтов."
   },
   "options_so_far": {
      "description": "",
      "message": "на данный момент. С помощью этих переключателей вы сможете выбрать, какое действие Privacy Badger будет выполнять с каждым трекером."
   },
   "options_social_widgets_checkbox": {
      "description": "",
      "message": "Заменить виджеты социальных сетей"
   },
   "options_title": {
      "description": "",
      "message": "Настройки Privacy Badger"
   },
   "options_tracking_domains": {
      "description": "",
      "message": "трекеров"
   },
   "options_webrtc_setting": {
      "description": "",
      "message": "Prevent WebRTC from leaking local IP address *"
   },
   "options_webrtc_warning": {
      "description": "",
      "message": "* WebRTC can leak your local IP address. Privacy Badger's default setting helps protect you, but for added protection you may enable this option. Note that doing so may degrade performance on some tools like Google Hangouts."
   },
   "pb_detected": {
      "description": "",
      "message": "Privacy Badger обнаружил"
   },
   "popup_blocked": {
      "description": "",
      "message": "На данном сайте нет сторонних трекеров."
   },
   "popup_disable_for_site": {
      "description": "",
      "message": "Отключить Privacy Badger для этого сайта"
   },
   "popup_enable_for_site": {
      "description": "",
      "message": "Включить Privacy Badger для этого сайта"
   },
   "popup_instructions": {
      "description": "",
      "message": "потенциальных \u003Ca target='_blank' href='https://www.eff.org/privacybadger#faq-What-is-a-third-party-tracker?'>трекеров\u003C/a> на этой странице. С помощью этих переключателей вы можете выбрать, какое действие Privacy Badger выполнит с каждым из них. Их нужно регулировать только в случае проблем с работой сайта."
   },
   "popup_noblocked": {
      "description": "",
      "message": "Почему ничего не заблокировано?"
   },
   "popup_options_button": {
      "description": "",
      "message": "Настройки"
   },
   "privacy_badger": {
      "description": "",
      "message": "Privacy Badger"
   },
   "privacy_badger_what_is": {
      "description": "",
      "message": "Что такое Privacy Badger?"
   },
   "remove_button": {
      "description": "This is the label for the 'Remove selected' buttons.",
      "message": "Удалить выбранные элементы"
   },
   "report_broken_site": {
      "description": "",
      "message": "Сообщить о неполадках на сайте"
   },
   "report_button": {
      "description": "",
      "message": "Отправить сообщение об ошибке"
   },
   "report_cancel": {
      "description": "",
      "message": "Отмена"
   },
   "report_close": {
      "description": "",
      "message": "Закрыть"
   },
   "report_fail": {
      "description": "",
      "message": "Ой, что-то пошло не так."
   },
   "report_input_label": {
      "description": "",
      "message": "Описание"
   },
   "report_success": {
      "description": "",
      "message": "Спасибо! Мы внимательно изучим эту проблему."
   },
   "report_terms": {
      "description": "",
      "message": "Это действие автоматически отправит в EFF следующую информацию: адрес сайта, на котором вы находитесь в данный момент, версию вашего браузера, версию Privacy Badger и состояние всех переключателей, установленных для этого сайта."
   },
   "report_text": {
      "description": "",
      "message": "Введите короткое описание ошибки."
   },
   "report_title": {
      "description": "",
      "message": "Сообщить об ошибке"
   },
   "show_counter_checkbox": {
      "description": "",
      "message": "Отображать счетчик заблокированных элементов"
   },
   "slideshow_1": {
      "description": "",
      "message": " Привет, я — Privacy Badger! Спасибо, что установили меня. Я здесь, чтобы научить вас нескольким полезным приемам. Мы можем начать работать вместе."
   },
   "slideshow_10": {
      "description": "",
      "message": " Если вы считаете, что я принял неверное решение для трекера, вы можете передвинуть переключатель в положение «Красный», чтобы заблокировать его полностью, «Желтый» — чтобы заблокировать его частично, и «Зеленый» — чтобы разрешить его работу."
   },
   "slideshow_11": {
      "description": "",
      "message": " Если вы измените установленное мной положение переключателя, то вы можете вернуть его под мой контроль, нажав стрелку для отмены."
   },
   "slideshow_12": {
      "description": "",
      "message": " Если возникли проблемы с работой страницы и вы думаете, что это из-за меня, то можете нажать кнопку отключения. Я пойду спать и больше ничего не буду блокировать на этом сайте."
   },
   "slideshow_13": {
      "description": "",
      "message": " Если из-за меня не работает страница, пожалуйста, сообщите моим разработчикам, и они исправят проблему! Для этого вы можете нажать вот эту кнопку."
   },
   "slideshow_14": {
      "description": "",
      "message": " Если вы хотите изменить другие настройки, нажмите на значок шестеренки."
   },
   "slideshow_15": {
      "description": "",
      "message": " Конечно, вы можете не изменять настройки, и я продолжу тихо поедать все трекеры, которые обнаружу."
   },
   "slideshow_16": {
      "description": "",
      "message": " Спасибо за то, что сделали важный шаг к защите вашей приватности! Вы можете щелкнуть здесь, если вам снова понадобится помощь, и ниже, чтобы сообщить миру о том, что вы против отслеживания активности в Интернете."
   },
   "slideshow_2": {
      "description": "",
      "message": " Я буду находиться в вашем браузере и наблюдать за шпионскими рекламными сетями и трекерами, которые сохраняют все, чем вы занимаетесь в Интернете."
   },
   "slideshow_3": {
      "description": "",
      "message": " Если я обнаружу что-то, похожее на трекер, я остановлю его и заблокирую. "
   },
   "slideshow_4": {
      "description": "",
      "message": " Если вы щелкнете на моем значке, то увидите список потенциальных трекеров на текущей вкладке браузера."
   },
   "slideshow_5": {
      "description": "",
      "message": " Если ползунок красного цвета, то это означает, что я заблокировал трекер полностью! Этот злодей больше вас не потревожит."
   },
   "slideshow_6": {
      "description": "",
      "message": " Если ползунок желтого цвета, то это означает, что я заблокировал трекер частично. Я предотвращу отслеживание как смогу, поедая его файлы cookie, однако его полная блокировка может привести к нарушению функционирования сайта."
   },
   "slideshow_7": {
      "description": "",
      "message": " Если ползунок зеленого цвета, то это означает, что я не могу сказать точно, отслеживает вас этот домен или нет. Возможно, он вас не отслеживает, но я все равно буду за ним наблюдать."
   },
   "slideshow_8": {
      "description": "",
      "message": " Возможно, при первом открытии моего значка вы увидите, что все трекеры зеленого цвета. Не волнуйтесь! В отличие от других блокировщиков трекеров я работаю по другому принципу: вместо блокирования заранее заданной отслеживающей активности я учусь этому во время вашей работы в Интернете. Если я еще ничего не блокирую, попробуйте перейти на 4-5 других сайтов. После этого я смогу блокировать трекеры со схожей активностью."
   },
   "slideshow_9": {
      "description": "",
      "message": " Чем дольше я работаю, тем больше учусь. Поэтому чем дольше вы меня используете, тем лучше я буду защищать вас от коварных трекеров!"
   },
   "tooltip_allow": {
      "description": "",
      "message": "Move the slider right to allow a domain"
   },
   "tooltip_block": {
      "description": "",
      "message": "Move the slider left to block a domain"
   },
   "tooltip_cookieblock": {
      "description": "",
      "message": "Center the slider to block cookies"
   },
   "version": {
      "description": "",
      "message": "version"
   },
   "whitelisted_domains": {
      "description": "This is a tab heading.",
      "message": "Белый список доменов"
   }
}
