{
   "aboutText": {
      "description": "About",
      "message": "Sobre"
   },
   "activeModeSwitchText": {
      "description": "Active Mode",
      "message": "Modo ativo"
   },
   "activeModeText": {
      "description": "Enable Active Mode? Delay Before Cleaning:",
      "message": "Habilitar modo ativo? Atraso antes da limpeza:"
   },
   "activeModeTooltipText": {
      "description": "When active mode is enabled, cookie cleanup is triggered on tab close.",
      "message": "Quando o modo ativo está habilitado, a limpeza de cookies é realizada com o fechamento da aba."
   },
   "addURLText": {
      "description": "Add URL",
      "message": "Adicionar URL"
   },
   "cancelConfirmText": {
      "description": "Restored Settings!",
      "message": "Configurações restauradas!"
   },
   "cancelText": {
      "description": "Cancel",
      "message": "Cancelar"
   },
   "clearCookiesForDomainText": {
      "description": "Clear All Cookies For This Domain",
      "message": "Limpar todos os cookies para este domínio"
   },
   "clearURLText": {
      "description": "Remove All",
      "message": "Remover todos"
   },
   "contextualIdentitiesEnabledText": {
      "description": "Enable Support for Firefox's Contextual Identities (EXPERIMENTAL Firefox 53+)",
      "message": "Habilitar suporte para as identidades contextuais do Firefox (EXPERIMENTAL Firefox 53+)"
   },
   "contextualIdentitiesTooltipText": {
      "description": "Do NOT Enable unless you are on Firefox 53+. This will add a different whitelist for EACH containers you use. Your default whitelist is separate from these.",
      "message": "NÃO ativar a menos que esteja no Firefox 53+. Isto irá adicionar uma lista branca diferente para CADA contentor que utilizar. A sua lista branca predefinida é separada destas."
   },
   "contributorsText": {
      "description": "Contributors:",
      "message": "Contribuidores:"
   },
   "cookieCleanUpOnStartText": {
      "description": "Enable Cookie Cleanup on Startup",
      "message": "Habilitar limpeza de cookies ao iniciar"
   },
   "cookieCleanUpOnStartTooltipText": {
      "description": "This basically does a Cookie Cleanup (Ignore Open Tabs), meaning all cookies not on the WhiteList are deleted.",
      "message": "Isto basicamente faz uma limpeza de cookies (ignorar abas abertas), o que significa que todos os cookies que não estão na lista branca são apagados."
   },
   "cookieCleanupIgnoreOpenTabsText": {
      "description": "Cookie Cleanup (Ignore Open Tabs)",
      "message": "Limpar cookies (ignorar abas abertas)"
   },
   "cookieCleanupText": {
      "description": "Cookie Cleanup",
      "message": "Limpar cookies"
   },
   "defaultConfirmText": {
      "description": "Restored Default Settings!",
      "message": "Configurações padrão restauradas!"
   },
   "defaultSettingsText": {
      "description": "Restore Default Settings",
      "message": "Restaurar configurações padrão"
   },
   "defaultSettingsTooltipText": {
      "description": "WARNING: This will also clear your WhiteList as well, so make sure you have a backup",
      "message": "AVISO: Isto irá também limpar a sua lista branca, por isso certifique-se de que tem uma cópia de segurança"
   },
   "enableGlobalSubdomainText": {
      "description": "Enable Check for Subdomains",
      "message": "Habilitar verificação por subdomínios"
   },
   "enableGlobalSubdomainTooltipText": {
      "description": "When enabled, *.example.com will match example.com. Turning this off gives you more granular control over your lists.",
      "message": "Quando habilitado, *.example.com irá corresponder a example.com. Desligar isso te dá um controle mais refinado sobre suas listas."
   },
   "enterURLTooltipText": {
      "description": "Enter URLS without the 'www.' part, then press 'Enter' or 'Add URL'. Alternatively go to the site and add it from the icon.",
      "message": "Digite as URLS sem a parte 'www.', depois pressione 'Enter' ou 'Adicionar URL'. Alternativamente, vá ao site e adicione-o a partir do ícone."
   },
   "exportURLSText": {
      "description": "Export WhiteList",
      "message": "Exportar lista branca"
   },
   "extensionDescription": {
      "description": "Control Your Cookies! Auto Delete Unused Cookies From your Closed Tabs While Keeping The Ones You Want.",
      "message": "Controle os seus cookies! Apague automaticamente cookies não utilizados das suas abas fechadas, enquanto mantém os que deseja."
   },
   "extensionName": {
      "description": "Name of the extension.",
      "message": "Cookie AutoDelete"
   },
   "greyListWordText": {
      "description": "GreyList",
      "message": "Lista cinza"
   },
   "hostWebsiteText": {
      "description": "Host Website:",
      "message": "Servidor do site:"
   },
   "hoverButtonTooltipText": {
      "description": "The GreyList are the cookies that you want to keep until the browser restarts. The WhiteList are the cookies that you want to keep permanently.",
      "message": "A lista cinza são os cookies que quer manter até que o navegador reinicie. A lista branca são os cookies que quer manter permanentemente."
   },
   "importURLSText": {
      "description": "Upload File",
      "message": "Importar arquivo"
   },
   "minutesText": {
      "description": "Minute(s)",
      "message": "Minuto(s)"
   },
   "notificationContent": {
      "description": "123 Deleted Cookies from: google.com, facebook.com",
      "message": "$Num$ cookies apagados de: $Websites$",
      "placeholders": {
         "num": {
            "content": "$1",
            "example": "123"
         },
         "websites": {
            "content": "$2",
            "example": "google.com, facebook.com"
         }
      }
   },
   "notificationTitle": {
      "description": "Cookie AutoDelete: Cookies were Deleted!",
      "message": "Cookie AutoDelete: Cookies foram apagados!"
   },
   "notifyCookieCleanUpText": {
      "description": "Show Notification After Cookie CleanUp",
      "message": "Mostrar notificação após a limpeza dos cookies"
   },
   "notifyCookieCleanUpTooltipText": {
      "description": "Shows how many cookies were cleaned and for which domain.",
      "message": "Mostrar quantos cookies foram limpos e de quais domínios."
   },
   "releaseNotesText": {
      "description": "Release Notes",
      "message": "Notas da versão"
   },
   "reportIssuesText": {
      "description": "Report issues and suggest features",
      "message": "Reporte problemas e sugira funcionalidades"
   },
   "resetCounterConfirmText": {
      "description": "Cleared Counter!",
      "message": "Contador zerado!"
   },
   "resetCounterText": {
      "description": "Reset Counter",
      "message": "Zerar contador"
   },
   "reviewLinkMessage": {
      "description": "Thanks for trying out Cookie AutoDelete. If you liked it, then please give a Review.",
      "message": "Obrigado por utilizar o Cookie AutoDelete. Caso tenha gostado, por favor deixe uma avaliação."
   },
   "rightClickToSave": {
      "description": "Right Click to Save Link As",
      "message": "Clique com o botão direito para Salvar Link Como"
   },
   "saveConfirmText": {
      "description": "Saved!",
      "message": "Salvo!"
   },
   "saveText": {
      "description": "Save",
      "message": "Salvar"
   },
   "settingsText": {
      "description": "Cookie Settings",
      "message": "Configurações dos cookies"
   },
   "showNumberOfCookiesInIconText": {
      "description": "Show Number of Cookies for that Domain",
      "message": "Mostrar número de cookies para esse domínio"
   },
   "showNumberOfCookiesInIconTooltipText": {
      "description": "Shows which cookies can be detected in the popup badge.",
      "message": "Mostra a quantidade de cookies detectados no popup do ícone."
   },
   "statLoggingText": {
      "description": "Log Total Number Of Cookies Deleted",
      "message": "Registar número total de cookies apagados"
   },
   "statLoggingTooltipText": {
      "description": "Counts the number of cookies deleted during this session and in total. This is shown in the Welcome Screen.",
      "message": "Conta o número de cookies apagados durante esta sessão e no total. Isto é mostrado na tela de boas vindas."
   },
   "switchToGreyListText": {
      "description": "Clean on Browser Restart (GreyList)",
      "message": "Limpar ao reiniciar o navegador (lista cinza)"
   },
   "switchToNoListText": {
      "description": "Clean After Tab Close",
      "message": "Limpar após o fechamento da aba"
   },
   "switchToWhiteListText": {
      "description": "Never Clean (WhiteList)",
      "message": "Nunca limpar (lista branca)"
   },
   "toGreyListText": {
      "description": "To GreyList",
      "message": "Para a lista cinza"
   },
   "toWhiteListText": {
      "description": "To WhiteList",
      "message": "Para a lista branca"
   },
   "versionText": {
      "description": "version",
      "message": "versão"
   },
   "welcomeMessage": {
      "description": "Hi there! During this session, Cookie AutoDelete has deleted 123 cookies and in total 456 cookies.",
      "message": "Olá! Durante esta sessão, o Cookie AutoDelete apagou $sessionDeleted$ cookies de um total de $totalDeleted$ cookies.",
      "placeholders": {
         "sessionDeleted": {
            "content": "$1",
            "example": "123"
         },
         "totalDeleted": {
            "content": "$2",
            "example": "456"
         }
      }
   },
   "welcomeText": {
      "description": "Welcome",
      "message": "Bem-vindo"
   },
   "whiteListText": {
      "description": "Cookie WhiteList",
      "message": "Lista branca de cookies"
   },
   "whiteListWordText": {
      "description": "WhiteList",
      "message": "Lista branca"
   }
}
